register/counter.vcd
$date
     Feb 26, 2017       17:28:23
$end

$version
 SystemC 2.3.1-Accellera --- Feb 25 2017 20:21:25
$end

$timescale
     1 ps
$end

$scope module SystemC $end
$var wire    1  aaaaa  clock       $end
$var wire    1  aaaab  reset       $end
$var wire    1  aaaac  sreset       $end
$var wire    1  aaaad  ena       $end
$var wire    8  aaaae  out [7:0]  $end
$upscope $end
$enddefinitions  $end

$comment
All initial values are dumped below at time 0 sec = 0 timescale units.
$end

$dumpvars
1aaaaa
0aaaab
1aaaac
1aaaad
b0 aaaae
$end

#2000
0aaaaa

#4000
1aaaaa

#6000
0aaaaa
0aaaac

#8000
1aaaaa
b1 aaaae

#10000
0aaaaa

#12000
1aaaaa
b10 aaaae

#14000
0aaaaa

#16000
1aaaaa
b11 aaaae

#18000
0aaaaa

#20000
1aaaaa
b100 aaaae

#22000
0aaaaa

#24000
1aaaaa
0aaaad

#26000
0aaaaa

#28000
1aaaaa

#30000
0aaaaa
1aaaac

#32000
1aaaaa
b0 aaaae

