register/shift.vcd
$date
     Feb 26, 2017       17:32:17
$end

$version
 SystemC 2.3.1-Accellera --- Feb 25 2017 20:21:25
$end

$timescale
     1 ps
$end

$scope module SystemC $end
$var wire    1  aaaaa  clock       $end
$var wire    1  aaaab  reset       $end
$var wire    1  aaaac  sreset       $end
$var wire    1  aaaad  load       $end
$var wire    8  aaaae  din [7:0]  $end
$var wire    8  aaaaf  out [7:0]  $end
$var wire    1  aaaag  c_out       $end
$var wire    1  aaaah  c_in       $end
$upscope $end
$enddefinitions  $end

$comment
All initial values are dumped below at time 0 sec = 0 timescale units.
$end

$dumpvars
1aaaaa
0aaaab
1aaaac
0aaaad
b0 aaaae
b0 aaaaf
0aaaag
0aaaah
$end

#2000
0aaaaa

#4000
1aaaaa

#6000
0aaaaa
0aaaac
1aaaad
b1001101 aaaae

#8000
1aaaaa
b1001101 aaaaf

#10000
0aaaaa

#12000
1aaaaa

#14000
0aaaaa

#16000
1aaaaa

#18000
0aaaaa
0aaaad

#20000
1aaaaa
b100110 aaaaf
1aaaag

#22000
0aaaaa

#24000
1aaaaa
b10011 aaaaf
0aaaag

#26000
0aaaaa

#28000
1aaaaa
b10001001 aaaaf
1aaaag
1aaaah

#30000
0aaaaa

#32000
1aaaaa
b11000100 aaaaf

#34000
0aaaaa

#36000
1aaaaa
b11100010 aaaaf
0aaaag

#38000
0aaaaa

#40000
1aaaaa
b11110001 aaaaf

#42000
0aaaaa

#44000
1aaaaa
b11111000 aaaaf
1aaaag

#46000
0aaaaa

#48000
1aaaaa
1aaaac
b0 aaaaf
0aaaag

