processor/decoder_w.vcd
$date
     Jun 14, 2017       22:45:30
$end

$version
 SystemC 2.3.1-Accellera --- Feb 25 2017 20:21:25
$end

$timescale
     1 ps
$end

$scope module SystemC $end
$var wire    1  aaaaa  clock       $end
$var wire    1  aaaab  reset       $end
$var wire    4  aaaac  alu_command [3:0]  $end
$var wire   32  aaaad  a [31:0]  $end
$var wire   32  aaaae  b [31:0]  $end
$var wire   32  aaaaf  alu_result [31:0]  $end
$var wire   10  aaaag  mem_addr [9:0]  $end
$var wire    1  aaaah  mem_ready       $end
$var wire    6  aaaai  instruction [5:0]  $end
$var wire    5  aaaaj  ron_address0 [4:0]  $end
$var wire    5  aaaak  ron_address1 [4:0]  $end
$var wire    1  aaaal  oe0       $end
$var wire    1  aaaam  we0       $end
$var wire    1  aaaan  oe1       $end
$var wire    1  aaaao  we1       $end
$var wire   32  aaaap  ron_in0 [31:0]  $end
$var wire   32  aaaaq  ron_in1 [31:0]  $end
$var wire    6  aaaar  state [5:0]  $end
$var wire   32  aaaas  ron0 [31:0]  $end
$var wire   32  aaaat  ron1 [31:0]  $end
$var wire   32  aaaau  ron2 [31:0]  $end
$var wire   32  aaaav  ron3 [31:0]  $end
$var wire   32  aaaaw  ron10 [31:0]  $end
$var wire   32  aaaax  ronIndIn [31:0]  $end
$var wire   32  aaaay  ronIndC [31:0]  $end
$var wire   32  aaaaz  ronEdgeY [31:0]  $end
$var wire   32  aaaba  ronX [31:0]  $end
$var wire   32  aaabb  ronY [31:0]  $end
$var wire   32  aaabc  ronFX [31:0]  $end
$var wire   32  aaabd  ronFY [31:0]  $end
$var wire   10  aaabe  count [9:0]  $end
$var wire   32  aaabf  from_mem [31:0]  $end
$var wire    1  aaabg  mem_we       $end
$var wire    1  aaabh  mem_re       $end
$var wire   32  aaabi  mem0 [31:0]  $end
$var wire   32  aaabj  mem_in [31:0]  $end
$var wire   32  aaabk  command [31:0]  $end
$var wire    1  aaabl  mem_read       $end
$var wire    1  aaabm  mem_write       $end
$var wire    1  aaabn  z_flag       $end
$var wire    8  aaabo  io_out [7:0]  $end
$var wire    1  aaabp  io_write       $end
$var wire    8  aaabq  dec_to_io [7:0]  $end
$var wire    8  aaabr  io_to_dec [7:0]  $end
$var wire    1  aaabs  c_flag       $end
$upscope $end
$enddefinitions  $end

$comment
All initial values are dumped below at time 0 sec = 0 timescale units.
$end

$dumpvars
1aaaaa
1aaaab
b0 aaaac
b0 aaaad
b0 aaaae
b0 aaaaf
b0 aaaag
0aaaah
b0 aaaai
b0 aaaaj
b0 aaaak
0aaaal
0aaaam
0aaaan
0aaaao
b0 aaaap
b0 aaaaq
b0 aaaar
b0 aaaas
b0 aaaat
b0 aaaau
b0 aaaav
b0 aaaaw
b0 aaaax
b0 aaaay
b0 aaaaz
b0 aaaba
b0 aaabb
b0 aaabc
b0 aaabd
b0 aaabe
b0 aaabf
0aaabg
0aaabh
b10000110000000000000000000000101 aaabi
b0 aaabj
b0 aaabk
0aaabl
0aaabm
1aaabn
b0 aaabo
0aaabp
b0 aaabq
b0 aaabr
0aaabs
$end

#2000
0aaaaa

#4000
1aaaaa

#6000
0aaaaa

#8000
1aaaaa
0aaaab
b100101 aaaar
1aaabl

#10000
0aaaaa

#12000
1aaaaa
b100110 aaaar
1aaabh

#14000
0aaaaa

#16000
1aaaaa

#18000
0aaaaa

#20000
1aaaaa
1aaaah
b10000110000000000000000000000101 aaabf
0aaabh

#22000
0aaaaa

#24000
1aaaaa
b100111 aaaar
b10000110000000000000000000000101 aaabk
0aaabl

#26000
0aaaaa

#28000
1aaaaa
0aaaah
b100001 aaaai
b101000 aaaar

#30000
0aaaaa

#32000
1aaaaa
b10000 aaaaj
1aaaam
b101 aaaap
b11 aaaar
b1 aaabe

#34000
0aaaaa

#36000
1aaaaa
b1 aaaag
b0 aaaaj
0aaaam
b0 aaaap
b0 aaaar

#38000
0aaaaa

#40000
1aaaaa
b100101 aaaar
1aaabl

#42000
0aaaaa

#44000
1aaaaa
b100110 aaaar
1aaabh

#46000
0aaaaa

#48000
1aaaaa

#50000
0aaaaa

#52000
1aaaaa
1aaaah
b10000110001000000000000000000111 aaabf
0aaabh

#54000
0aaaaa

#56000
1aaaaa
b100111 aaaar
b10000110001000000000000000000111 aaabk
0aaabl

#58000
0aaaaa

#60000
1aaaaa
b0 aaaag
0aaaah
b101000 aaaar

#62000
0aaaaa

#64000
1aaaaa
b10001 aaaaj
1aaaam
b111 aaaap
b11 aaaar
b10 aaabe

#66000
0aaaaa

#68000
1aaaaa
b10 aaaag
b0 aaaaj
0aaaam
b0 aaaap
b0 aaaar

#70000
0aaaaa

#72000
1aaaaa
b100101 aaaar
1aaabl

#74000
0aaaaa

#76000
1aaaaa
b100110 aaaar
1aaabh

#78000
0aaaaa

#80000
1aaaaa

#82000
0aaaaa

#84000
1aaaaa
1aaaah
b10000110010000000000000000000011 aaabf
0aaabh

#86000
0aaaaa

#88000
1aaaaa
b100111 aaaar
b10000110010000000000000000000011 aaabk
0aaabl

#90000
0aaaaa

#92000
1aaaaa
b0 aaaag
0aaaah
b101000 aaaar

#94000
0aaaaa

#96000
1aaaaa
b10010 aaaaj
1aaaam
b11 aaaap
b11 aaaar
b11 aaabe

#98000
0aaaaa

#100000
1aaaaa
b11 aaaag
b0 aaaaj
0aaaam
b0 aaaap
b0 aaaar

#102000
0aaaaa

#104000
1aaaaa
b100101 aaaar
1aaabl

#106000
0aaaaa

#108000
1aaaaa
b100110 aaaar
1aaabh

#110000
0aaaaa

#112000
1aaaaa

#114000
0aaaaa

#116000
1aaaaa
1aaaah
b10000110011000000000000000000011 aaabf
0aaabh

#118000
0aaaaa

#120000
1aaaaa
b100111 aaaar
b10000110011000000000000000000011 aaabk
0aaabl

#122000
0aaaaa

#124000
1aaaaa
b0 aaaag
0aaaah
b101000 aaaar

#126000
0aaaaa

#128000
1aaaaa
b10011 aaaaj
1aaaam
b11 aaaap
b11 aaaar
b100 aaabe

#130000
0aaaaa

#132000
1aaaaa
b100 aaaag
b0 aaaaj
0aaaam
b0 aaaap
b0 aaaar

#134000
0aaaaa

#136000
1aaaaa
b100101 aaaar
1aaabl

#138000
0aaaaa

#140000
1aaaaa
b100110 aaaar
1aaabh

#142000
0aaaaa

#144000
1aaaaa

#146000
0aaaaa

#148000
1aaaaa
1aaaah
b10000110100000000000000001110000 aaabf
0aaabh

#150000
0aaaaa

#152000
1aaaaa
b100111 aaaar
b10000110100000000000000001110000 aaabk
0aaabl

#154000
0aaaaa

#156000
1aaaaa
b0 aaaag
0aaaah
b101000 aaaar

#158000
0aaaaa

#160000
1aaaaa
b10100 aaaaj
1aaaam
b1110000 aaaap
b11 aaaar
b101 aaabe

#162000
0aaaaa

#164000
1aaaaa
b101 aaaag
b0 aaaaj
0aaaam
b0 aaaap
b0 aaaar

#166000
0aaaaa

#168000
1aaaaa
b100101 aaaar
1aaabl

#170000
0aaaaa

#172000
1aaaaa
b100110 aaaar
1aaabh

#174000
0aaaaa

#176000
1aaaaa

#178000
0aaaaa

#180000
1aaaaa
1aaaah
b10100000000000100001000110101 aaabf
0aaabh

#182000
0aaaaa

#184000
1aaaaa
b100111 aaaar
b10100000000000100001000110101 aaabk
0aaabl

#186000
0aaaaa

#188000
1aaaaa
b0 aaaag
0aaaah
b101 aaaai
b101000 aaaar

#190000
0aaaaa

#192000
1aaaaa
b101 aaaac
b10000 aaaaj
b10001 aaaak
1aaaal
1aaaan
b1 aaaar
b110 aaabe

#194000
0aaaaa

#196000
1aaaaa
b101 aaaad
b111 aaaae
b100011 aaaaf
b10010 aaaar

#198000
0aaaaa

#200000
1aaaaa
b0 aaaac
b10101 aaaaj
0aaaal
1aaaam
0aaaan
b100011 aaaap
b10100 aaaar
0aaabn

#202000
0aaaaa

#204000
1aaaaa
b0 aaaae
b10110 aaaar

#206000
0aaaaa

#208000
1aaaaa
b110 aaaag
b0 aaaaj
b0 aaaak
0aaaam
b0 aaaap
b0 aaaar

#210000
0aaaaa

#212000
1aaaaa
b100101 aaaar
1aaabl

#214000
0aaaaa

#216000
1aaaaa
b100110 aaaar
1aaabh

#218000
0aaaaa

#220000
1aaaaa

#222000
0aaaaa

#224000
1aaaaa
1aaaah
b100000000000101001010110101 aaabf
0aaabh

#226000
0aaaaa

#228000
1aaaaa
b100111 aaaar
b100000000000101001010110101 aaabk
0aaabl

#230000
0aaaaa

#232000
1aaaaa
b0 aaaag
0aaaah
b1 aaaai
b101000 aaaar

#234000
0aaaaa

#236000
1aaaaa
b1 aaaac
b101 aaaaf
b10100 aaaaj
b10101 aaaak
1aaaal
1aaaan
b1 aaaar
b111 aaabe

#238000
0aaaaa

#240000
1aaaaa
b1110000 aaaad
b100011 aaaae
b10010011 aaaaf
b10010 aaaar

#242000
0aaaaa

#244000
1aaaaa
b0 aaaac
b10101 aaaaj
0aaaal
1aaaam
0aaaan
b10010011 aaaap
b10100 aaaar

#246000
0aaaaa

#248000
1aaaaa
b0 aaaae
b10110 aaaar

#250000
0aaaaa

#252000
1aaaaa
b111 aaaag
b0 aaaaj
b0 aaaak
0aaaam
b0 aaaap
b0 aaaar

#254000
0aaaaa

#256000
1aaaaa
b100101 aaaar
1aaabl

#258000
0aaaaa

#260000
1aaaaa
b100110 aaaar
1aaabh

#262000
0aaaaa

#264000
1aaaaa

#266000
0aaaaa

#268000
1aaaaa
1aaaah
b10100000000000100001000110110 aaabf
0aaabh

#270000
0aaaaa

#272000
1aaaaa
b100111 aaaar
b10100000000000100001000110110 aaabk
0aaabl

#274000
0aaaaa

#276000
1aaaaa
b0 aaaag
0aaaah
b101 aaaai
b101000 aaaar

#278000
0aaaaa

#280000
1aaaaa
b101 aaaac
b0 aaaaf
b10000 aaaaj
b10001 aaaak
1aaaal
1aaaan
b1 aaaar
b1000 aaabe

#282000
0aaaaa

#284000
1aaaaa
b101 aaaad
b111 aaaae
b100011 aaaaf
b10010 aaaar
1aaabn

#286000
0aaaaa

#288000
1aaaaa
b0 aaaac
b10110 aaaaj
0aaaal
1aaaam
0aaaan
b100011 aaaap
b10100 aaaar
0aaabn

#290000
0aaaaa

#292000
1aaaaa
b0 aaaae
b10110 aaaar

#294000
0aaaaa

#296000
1aaaaa
b1000 aaaag
b0 aaaaj
b0 aaaak
0aaaam
b0 aaaap
b0 aaaar

#298000
0aaaaa

#300000
1aaaaa
b100101 aaaar
1aaabl

#302000
0aaaaa

#304000
1aaaaa
b100110 aaaar
1aaabh

#306000
0aaaaa

#308000
1aaaaa

#310000
0aaaaa

#312000
1aaaaa
1aaaah
b100000000000101011011010110 aaabf
0aaabh

#314000
0aaaaa

#316000
1aaaaa
b100111 aaaar
b100000000000101011011010110 aaabk
0aaabl

#318000
0aaaaa

#320000
1aaaaa
b0 aaaag
0aaaah
b1 aaaai
b101000 aaaar

#322000
0aaaaa

#324000
1aaaaa
b1 aaaac
b101 aaaaf
b10101 aaaaj
b10110 aaaak
1aaaal
1aaaan
b1 aaaar
b1001 aaabe

#326000
0aaaaa

#328000
1aaaaa
b10010011 aaaad
b100011 aaaae
b10110110 aaaaf
b10010 aaaar

#330000
0aaaaa

#332000
1aaaaa
b0 aaaac
b10110 aaaaj
0aaaal
1aaaam
0aaaan
b10110110 aaaap
b10100 aaaar

#334000
0aaaaa

#336000
1aaaaa
b0 aaaae
b10110 aaaar

#338000
0aaaaa

#340000
1aaaaa
b1001 aaaag
b0 aaaaj
b0 aaaak
0aaaam
b0 aaaap
b0 aaaar

#342000
0aaaaa

#344000
1aaaaa
b100101 aaaar
1aaabl

#346000
0aaaaa

#348000
1aaaaa
b100110 aaaar
1aaabh

#350000
0aaaaa

#352000
1aaaaa

#354000
0aaaaa

#356000
1aaaaa
1aaaah
b11100000000000000001001010111 aaabf
0aaabh

#358000
0aaaaa

#360000
1aaaaa
b100111 aaaar
b11100000000000000001001010111 aaabk
0aaabl

#362000
0aaaaa

#364000
1aaaaa
b0 aaaag
0aaaah
b111 aaaai
b101000 aaaar

#366000
0aaaaa

#368000
1aaaaa
b111 aaaac
b1001001 aaaaf
b10010 aaaaj
1aaaal
b10 aaaar
b1010 aaabe

#370000
0aaaaa

#372000
1aaaaa
b11 aaaad
b1 aaaaf
b10011 aaaar

#374000
0aaaaa

#376000
1aaaaa
b10111 aaaaj
0aaaal
1aaaam
b1 aaaap
b10101 aaaar

#378000
0aaaaa

#380000
1aaaaa
b0 aaaac
b1010 aaaag
b0 aaaaj
0aaaam
b0 aaaap
b0 aaaar

#382000
0aaaaa

#384000
1aaaaa
b100101 aaaar
1aaabl

#386000
0aaaaa

#388000
1aaaaa
b100110 aaaar
1aaabh

#390000
0aaaaa

#392000
1aaaaa

#394000
0aaaaa

#396000
1aaaaa
1aaaah
b11100000000000000001001111000 aaabf
0aaabh

#398000
0aaaaa

#400000
1aaaaa
b100111 aaaar
b11100000000000000001001111000 aaabk
0aaabl

#402000
0aaaaa

#404000
1aaaaa
b0 aaaag
0aaaah
b101000 aaaar

#406000
0aaaaa

#408000
1aaaaa
b111 aaaac
b10011 aaaaj
1aaaal
b10 aaaar
b1011 aaabe

#410000
0aaaaa

#412000
1aaaaa
b10011 aaaar

#414000
0aaaaa

#416000
1aaaaa
b11000 aaaaj
0aaaal
1aaaam
b1 aaaap
b10101 aaaar

#418000
0aaaaa

#420000
1aaaaa
b0 aaaac
b1011 aaaag
b0 aaaaj
0aaaam
b0 aaaap
b0 aaaar
b1 aaaaz

#422000
0aaaaa

#424000
1aaaaa
b100101 aaaar
1aaabl

#426000
0aaaaa

#428000
1aaaaa
b100110 aaaar
1aaabh

#430000
0aaaaa

#432000
1aaaaa

#434000
0aaaaa

#436000
1aaaaa
1aaaah
b1000000000000100001011111001 aaabf
0aaabh

#438000
0aaaaa

#440000
1aaaaa
b100111 aaaar
b1000000000000100001011111001 aaabk
0aaabl

#442000
0aaaaa

#444000
1aaaaa
b0 aaaag
0aaaah
b10 aaaai
b101000 aaaar

#446000
0aaaaa

#448000
1aaaaa
b10 aaaac
b11 aaaaf
b10000 aaaaj
b10111 aaaak
1aaaal
1aaaan
b1 aaaar
b1100 aaabe

#450000
0aaaaa

#452000
1aaaaa
b101 aaaad
b1 aaaae
b100 aaaaf
b10010 aaaar

#454000
0aaaaa

#456000
1aaaaa
b0 aaaac
b11001 aaaaj
0aaaal
1aaaam
0aaaan
b100 aaaap
b10100 aaaar

#458000
0aaaaa

#460000
1aaaaa
b0 aaaae
b10110 aaaar

#462000
0aaaaa

#464000
1aaaaa
b1100 aaaag
b0 aaaaj
b0 aaaak
0aaaam
b0 aaaap
b0 aaaar

#466000
0aaaaa

#468000
1aaaaa
b100101 aaaar
1aaabl

#470000
0aaaaa

#472000
1aaaaa
b100110 aaaar
1aaabh

#474000
0aaaaa

#476000
1aaaaa

#478000
0aaaaa

#480000
1aaaaa
1aaaah
b1000000000000100011100011010 aaabf
0aaabh

#482000
0aaaaa

#484000
1aaaaa
b100111 aaaar
b1000000000000100011100011010 aaabk
0aaabl

#486000
0aaaaa

#488000
1aaaaa
b0 aaaag
0aaaah
b101000 aaaar

#490000
0aaaaa

#492000
1aaaaa
b10 aaaac
b101 aaaaf
b10001 aaaaj
b11000 aaaak
1aaaal
1aaaan
b1 aaaar
b1101 aaabe

#494000
0aaaaa

#496000
1aaaaa
b111 aaaad
b1 aaaae
b110 aaaaf
b10010 aaaar

#498000
0aaaaa

#500000
1aaaaa
b0 aaaac
b11010 aaaaj
0aaaal
1aaaam
0aaaan
b110 aaaap
b10100 aaaar

#502000
0aaaaa

#504000
1aaaaa
b0 aaaae
b10110 aaaar

#506000
0aaaaa

#508000
1aaaaa
b1101 aaaag
b0 aaaaj
b0 aaaak
0aaaam
b0 aaaap
b0 aaaar

#510000
0aaaaa

#512000
1aaaaa
b100101 aaaar
1aaabl

#514000
0aaaaa

#516000
1aaaaa
b100110 aaaar
1aaabh

#518000
0aaaaa

#520000
1aaaaa

#522000
0aaaaa

#524000
1aaaaa
1aaaah
b10000111011000000000000000000000 aaabf
0aaabh

#526000
0aaaaa

#528000
1aaaaa
b100111 aaaar
b10000111011000000000000000000000 aaabk
0aaabl

#530000
0aaaaa

#532000
1aaaaa
b0 aaaag
0aaaah
b100001 aaaai
b101000 aaaar

#534000
0aaaaa

#536000
1aaaaa
b11011 aaaaj
1aaaam
b11 aaaar
b1110 aaabe

#538000
0aaaaa

#540000
1aaaaa
b1110 aaaag
b0 aaaaj
0aaaam
b0 aaaar

#542000
0aaaaa

#544000
1aaaaa
b100101 aaaar
1aaabl

#546000
0aaaaa

#548000
1aaaaa
b100110 aaaar
1aaabh

#550000
0aaaaa

#552000
1aaaaa

#554000
0aaaaa

#556000
1aaaaa
1aaaah
b10000111100000000000000000000000 aaabf
0aaabh

#558000
0aaaaa

#560000
1aaaaa
b100111 aaaar
b10000111100000000000000000000000 aaabk
0aaabl

#562000
0aaaaa

#564000
1aaaaa
b0 aaaag
0aaaah
b101000 aaaar

#566000
0aaaaa

#568000
1aaaaa
b11100 aaaaj
1aaaam
b11 aaaar
b1111 aaabe

#570000
0aaaaa

#572000
1aaaaa
b1111 aaaag
b0 aaaaj
0aaaam
b0 aaaar

#574000
0aaaaa

#576000
1aaaaa
b100101 aaaar
1aaabl

#578000
0aaaaa

#580000
1aaaaa
b100110 aaaar
1aaabh

#582000
0aaaaa

#584000
1aaaaa

#586000
0aaaaa

#588000
1aaaaa
1aaaah
b10100000000000100011101101100 aaabf
0aaabh

#590000
0aaaaa

#592000
1aaaaa
b100111 aaaar
b10100000000000100011101101100 aaabk
0aaabl

#594000
0aaaaa

#596000
1aaaaa
b0 aaaag
0aaaah
b101 aaaai
b101000 aaaar

#598000
0aaaaa

#600000
1aaaaa
b101 aaaac
b0 aaaaf
b10001 aaaaj
b11011 aaaak
1aaaal
1aaaan
b1 aaaar
b10000 aaabe

#602000
0aaaaa

#604000
1aaaaa
b10010 aaaar

#606000
0aaaaa

#608000
1aaaaa
b0 aaaac
b1100 aaaaj
0aaaal
1aaaam
0aaaan
b10100 aaaar
1aaabn

#610000
0aaaaa

#612000
1aaaaa
b10110 aaaar

#614000
0aaaaa

#616000
1aaaaa
b10000 aaaag
b0 aaaaj
b0 aaaak
0aaaam
b0 aaaar

#618000
0aaaaa

#620000
1aaaaa
b100101 aaaar
1aaabl

#622000
0aaaaa

#624000
1aaaaa
b100110 aaaar
1aaabh

#626000
0aaaaa

#628000
1aaaaa

#630000
0aaaaa

#632000
1aaaaa
1aaaah
b100000000000011001110001100 aaabf
0aaabh

#634000
0aaaaa

#636000
1aaaaa
b100111 aaaar
b100000000000011001110001100 aaabk
0aaabl

#638000
0aaaaa

#640000
1aaaaa
b0 aaaag
0aaaah
b1 aaaai
b101000 aaaar

#642000
0aaaaa

#644000
1aaaaa
b1 aaaac
b111 aaaaf
b1100 aaaaj
b11100 aaaak
1aaaal
1aaaan
b1 aaaar
b10001 aaabe

#646000
0aaaaa

#648000
1aaaaa
b0 aaaad
b0 aaaaf
b10010 aaaar
0aaabn

#650000
0aaaaa

#652000
1aaaaa
b0 aaaac
0aaaal
1aaaam
0aaaan
b10100 aaaar
1aaabn

#654000
0aaaaa

#656000
1aaaaa
b10110 aaaar

#658000
0aaaaa

#660000
1aaaaa
b10001 aaaag
b0 aaaaj
b0 aaaak
0aaaam
b0 aaaar

#662000
0aaaaa

#664000
1aaaaa
b100101 aaaar
1aaabl

#666000
0aaaaa

#668000
1aaaaa
b100110 aaaar
1aaabh

#670000
0aaaaa

#672000
1aaaaa

#674000
0aaaaa

#676000
1aaaaa
1aaaah
b100000000000011001010001111 aaabf
0aaabh

#678000
0aaaaa

#680000
1aaaaa
b100111 aaaar
b100000000000011001010001111 aaabk
0aaabl

#682000
0aaaaa

#684000
1aaaaa
b0 aaaag
0aaaah
b101000 aaaar

#686000
0aaaaa

#688000
1aaaaa
b1 aaaac
b1100 aaaaj
b10100 aaaak
1aaaal
1aaaan
b1 aaaar
b10010 aaabe

#690000
0aaaaa

#692000
1aaaaa
b1110000 aaaae
b1110000 aaaaf
b10010 aaaar

#694000
0aaaaa

#696000
1aaaaa
b0 aaaac
b1111 aaaaj
0aaaal
1aaaam
0aaaan
b1110000 aaaap
b10100 aaaar
0aaabn

#698000
0aaaaa

#700000
1aaaaa
b0 aaaae
b10110 aaaar
b1110000 aaaay

#702000
0aaaaa

#704000
1aaaaa
b10010 aaaag
b0 aaaaj
b0 aaaak
0aaaam
b0 aaaap
b0 aaaar

#706000
0aaaaa

#708000
1aaaaa
b100101 aaaar
1aaabl

#710000
0aaaaa

#712000
1aaaaa
b100110 aaaar
1aaabh

#714000
0aaaaa

#716000
1aaaaa

#718000
0aaaaa

#720000
1aaaaa
1aaaah
b100000000000011001010101100 aaabf
0aaabh

#722000
0aaaaa

#724000
1aaaaa
b100111 aaaar
b100000000000011001010101100 aaabk
0aaabl

#726000
0aaaaa

#728000
1aaaaa
b0 aaaag
0aaaah
b101000 aaaar

#730000
0aaaaa

#732000
1aaaaa
b1 aaaac
b0 aaaaf
b1100 aaaaj
b10101 aaaak
1aaaal
1aaaan
b1 aaaar
b10011 aaabe

#734000
0aaaaa

#736000
1aaaaa
b10010011 aaaae
b10010011 aaaaf
b10010 aaaar
1aaabn

#738000
0aaaaa

#740000
1aaaaa
b0 aaaac
0aaaal
1aaaam
0aaaan
b10010011 aaaap
b10100 aaaar
0aaabn

#742000
0aaaaa

#744000
1aaaaa
b0 aaaae
b10110 aaaar
b10010011 aaaax

#746000
0aaaaa

#748000
1aaaaa
b10011 aaaag
b0 aaaaj
b0 aaaak
0aaaam
b0 aaaap
b0 aaaar

#750000
0aaaaa

#752000
1aaaaa
b100101 aaaar
1aaabl

#754000
0aaaaa

#756000
1aaaaa
b100110 aaaar
1aaabh

#758000
0aaaaa

#760000
1aaaaa

#762000
0aaaaa

#764000
1aaaaa
1aaaah
b10010100000000000000000111101110 aaabf
0aaabh

#766000
0aaaaa

#768000
1aaaaa
b100111 aaaar
b10010100000000000000000111101110 aaabk
0aaabl

#770000
0aaaaa

#772000
1aaaaa
b0 aaaag
0aaaah
b100101 aaaai
b101000 aaaar

#774000
0aaaaa

#776000
1aaaaa
b1110 aaaaj
b1111 aaaak
1aaaan
b111 aaaar
b10100 aaabe

#778000
0aaaaa

#780000
1aaaaa
b1110000 aaaae
b1110000 aaaag
0aaaan
b100010 aaaar
1aaabl

#782000
0aaaaa

#784000
1aaaaa
b0 aaaae
b100011 aaaar
1aaabh

#786000
0aaaaa

#788000
1aaaaa

#790000
0aaaaa

#792000
1aaaaa
1aaaah
b1100 aaabf
0aaabh

#794000
0aaaaa

#796000
1aaaaa
1aaaam
b1100 aaaap
b11010 aaaar
0aaabl

#798000
0aaaaa

#800000
1aaaaa
b10100 aaaag
0aaaah
b0 aaaaj
b0 aaaak
0aaaam
b0 aaaap
b0 aaaar

#802000
0aaaaa

#804000
1aaaaa
b100101 aaaar
1aaabl

#806000
0aaaaa

#808000
1aaaaa
b100110 aaaar
1aaabh

#810000
0aaaaa

#812000
1aaaaa

#814000
0aaaaa

#816000
1aaaaa
1aaaah
b10011000000000000000000110001110 aaabf
0aaabh

#818000
0aaaaa

#820000
1aaaaa
b100111 aaaar
b10011000000000000000000110001110 aaabk
0aaabl

#822000
0aaaaa

#824000
1aaaaa
b0 aaaag
0aaaah
b100110 aaaai
b101000 aaaar

#826000
0aaaaa

#828000
1aaaaa
b1110 aaaaj
b1100 aaaak
1aaaal
1aaaan
b1000 aaaar
b10101 aaabe

#830000
0aaaaa

#832000
1aaaaa
b1100 aaaad
b10010011 aaaae
b10010011 aaaag
b100100 aaaar

#834000
0aaaaa

#836000
1aaaaa
0aaaan
b11100 aaaar
1aaabm

#838000
0aaaaa

#840000
1aaaaa
b0 aaaae
1aaabg
b1100 aaabj

#842000
0aaaaa

#844000
1aaaaa

#846000
0aaaaa

#848000
1aaaaa
1aaaah
0aaabg

#850000
0aaaaa

#852000
1aaaaa
b10101 aaaag
b0 aaaaj
b0 aaaak
0aaaal
b0 aaaar
0aaabm

#854000
0aaaaa

#856000
1aaaaa
0aaaah
b100101 aaaar
1aaabl

#858000
0aaaaa

#860000
1aaaaa
b100110 aaaar
1aaabh

#862000
0aaaaa

#864000
1aaaaa

#866000
0aaaaa

#868000
1aaaaa
1aaaah
b1100000000000000001110011100 aaabf
0aaabh

#870000
0aaaaa

#872000
1aaaaa
b100111 aaaar
b1100000000000000001110011100 aaabk
0aaabl

#874000
0aaaaa

#876000
1aaaaa
b0 aaaag
0aaaah
b11 aaaai
b101000 aaaar

#878000
0aaaaa

#880000
1aaaaa
b11 aaaac
b1101 aaaaf
b11100 aaaaj
1aaaal
b10 aaaar
b10110 aaabe

#882000
0aaaaa

#884000
1aaaaa
b0 aaaad
b1 aaaaf
b10011 aaaar

#886000
0aaaaa

#888000
1aaaaa
0aaaal
1aaaam
b1 aaaap
b10101 aaaar

#890000
0aaaaa

#892000
1aaaaa
b0 aaaac
b10110 aaaag
b0 aaaaj
0aaaam
b0 aaaap
b0 aaaar
b1 aaabb

#894000
0aaaaa

#896000
1aaaaa
b100101 aaaar
1aaabl

#898000
0aaaaa

#900000
1aaaaa
b100110 aaaar
1aaabh

#902000
0aaaaa

#904000
1aaaaa

#906000
0aaaaa

#908000
1aaaaa
1aaaah
b1000000000000111001000101011 aaabf
0aaabh

#910000
0aaaaa

#912000
1aaaaa
b100111 aaaar
b1000000000000111001000101011 aaabk
0aaabl

#914000
0aaaaa

#916000
1aaaaa
b0 aaaag
0aaaah
b10 aaaai
b101000 aaaar

#918000
0aaaaa

#920000
1aaaaa
b10 aaaac
b0 aaaaf
b11100 aaaaj
b10001 aaaak
1aaaal
1aaaan
b1 aaaar
b10111 aaabe

#922000
0aaaaa

#924000
1aaaaa
b1 aaaad
b111 aaaae
b11111111111111111111111111111010 aaaaf
b10010 aaaar
1aaabn

#926000
0aaaaa

#928000
1aaaaa
b0 aaaac
b1011 aaaaj
0aaaal
1aaaam
0aaaan
b11111111111111111111111111111010 aaaap
b10100 aaaar
0aaabn
1aaabs

#930000
0aaaaa

#932000
1aaaaa
b0 aaaae
b10110 aaaar

#934000
0aaaaa

#936000
1aaaaa
b10111 aaaag
b0 aaaaj
b0 aaaak
0aaaam
b0 aaaap
b0 aaaar

#938000
0aaaaa

#940000
1aaaaa
b100101 aaaar
1aaabl

#942000
0aaaaa

#944000
1aaaaa
b100110 aaaar
1aaabh

#946000
0aaaaa

#948000
1aaaaa

#950000
0aaaaa

#952000
1aaaaa
1aaaah
b1000100000000000000000000001111 aaabf
0aaabh

#954000
0aaaaa

#956000
1aaaaa
b100111 aaaar
b1000100000000000000000000001111 aaabk
0aaabl

#958000
0aaaaa

#960000
1aaaaa
b0 aaaag
0aaaah
b10001 aaaai
b101000 aaaar

#962000
0aaaaa

#964000
1aaaaa
b1111 aaaag
b1010 aaaar
b11000 aaabe

#966000
0aaaaa

#968000
1aaaaa
b11101 aaaar

#970000
0aaaaa

#972000
1aaaaa
b0 aaaar
b1111 aaabe

#974000
0aaaaa

#976000
1aaaaa
b100101 aaaar
1aaabl

#978000
0aaaaa

#980000
1aaaaa
b100110 aaaar
1aaabh

#982000
0aaaaa

#984000
1aaaaa

#986000
0aaaaa

#988000
1aaaaa
1aaaah
b10100000000000100011101101100 aaabf
0aaabh

#990000
0aaaaa

#992000
1aaaaa
b100111 aaaar
b10100000000000100011101101100 aaabk
0aaabl

#994000
0aaaaa

#996000
1aaaaa
b0 aaaag
0aaaah
b101 aaaai
b101000 aaaar

#998000
0aaaaa

#1000000
1aaaaa
b101 aaaac
b0 aaaaf
b10001 aaaaj
b11011 aaaak
1aaaal
1aaaan
b1 aaaar
b10000 aaabe

#1002000
0aaaaa

#1004000
1aaaaa
b111 aaaad
b10010 aaaar
1aaabn
0aaabs

#1006000
0aaaaa

#1008000
1aaaaa
b0 aaaac
b1100 aaaaj
0aaaal
1aaaam
0aaaan
b10100 aaaar

#1010000
0aaaaa

#1012000
1aaaaa
b10110 aaaar
b0 aaaax

#1014000
0aaaaa

#1016000
1aaaaa
b10000 aaaag
b0 aaaaj
b0 aaaak
0aaaam
b0 aaaar

#1018000
0aaaaa

#1020000
1aaaaa
b100101 aaaar
1aaabl

#1022000
0aaaaa

#1024000
1aaaaa
b100110 aaaar
1aaabh

#1026000
0aaaaa

#1028000
1aaaaa

#1030000
0aaaaa

#1032000
1aaaaa
1aaaah
b100000000000011001110001100 aaabf
0aaabh

#1034000
0aaaaa

#1036000
1aaaaa
b100111 aaaar
b100000000000011001110001100 aaabk
0aaabl

#1038000
0aaaaa

#1040000
1aaaaa
b0 aaaag
0aaaah
b1 aaaai
b101000 aaaar

#1042000
0aaaaa

#1044000
1aaaaa
b1 aaaac
b111 aaaaf
b1100 aaaaj
b11100 aaaak
1aaaal
1aaaan
b1 aaaar
b10001 aaabe

#1046000
0aaaaa

#1048000
1aaaaa
b0 aaaad
b1 aaaae
b1 aaaaf
b10010 aaaar
0aaabn

#1050000
0aaaaa

#1052000
1aaaaa
b0 aaaac
0aaaal
1aaaam
0aaaan
b1 aaaap
b10100 aaaar

#1054000
0aaaaa

#1056000
1aaaaa
b0 aaaae
b10110 aaaar
b1 aaaax

#1058000
0aaaaa

#1060000
1aaaaa
b10001 aaaag
b0 aaaaj
b0 aaaak
0aaaam
b0 aaaap
b0 aaaar

#1062000
0aaaaa

#1064000
1aaaaa
b100101 aaaar
1aaabl

#1066000
0aaaaa

#1068000
1aaaaa
b100110 aaaar
1aaabh

#1070000
0aaaaa

#1072000
1aaaaa

#1074000
0aaaaa

#1076000
1aaaaa
1aaaah
b100000000000011001010001111 aaabf
0aaabh

#1078000
0aaaaa

