processor/dma_test.vcd
$date
     Jun 14, 2017       18:40:05
$end

$version
 SystemC 2.3.1-Accellera --- Feb 25 2017 20:21:25
$end

$timescale
     1 ps
$end

$scope module SystemC $end
$var wire    1  aaaaa  clock       $end
$var wire    1  aaaab  reset       $end
$var wire    1  aaaac  cs0       $end
$var wire    1  aaaad  cs1       $end
$var wire    1  aaaae  operation0       $end
$var wire    1  aaaaf  operation1       $end
$var wire    1  aaaag  ready       $end
$var wire    1  aaaah  write_e       $end
$var wire    1  aaaai  read_e       $end
$var wire    1  aaaaj  ack0       $end
$var wire    1  aaaak  ack1       $end
$var wire    8  aaaal  addr0 [7:0]  $end
$var wire    8  aaaam  addr1 [7:0]  $end
$var wire   32  aaaan  in0 [31:0]  $end
$var wire   32  aaaao  in1 [31:0]  $end
$var wire    8  aaaap  addr_out [7:0]  $end
$var wire   32  aaaaq  out0 [31:0]  $end
$var wire   32  aaaar  out1 [31:0]  $end
$var wire   32  aaaas  dma_to_mem [31:0]  $end
$var wire   32  aaaat  mem_to_dma [31:0]  $end
$var wire    4  aaaau  state [3:0]  $end
$upscope $end
$enddefinitions  $end

$comment
All initial values are dumped below at time 0 sec = 0 timescale units.
$end

$dumpvars
1aaaaa
1aaaab
0aaaac
0aaaad
0aaaae
0aaaaf
0aaaag
0aaaah
0aaaai
0aaaaj
0aaaak
b0 aaaal
b0 aaaam
b0 aaaan
b0 aaaao
b0 aaaap
b0 aaaaq
b0 aaaar
b0 aaaas
b0 aaaat
b0 aaaau
$end

#2000
0aaaaa

#4000
1aaaaa

#6000
0aaaaa

#8000
1aaaaa
0aaaab
1aaaac
1aaaae
b1010 aaaal
b1010 aaaam
b1111 aaaan
b1010 aaaap
b1 aaaau

#10000
0aaaaa

#12000
1aaaaa
1aaaah
b1111 aaaas
b10 aaaau

#14000
0aaaaa

#16000
1aaaaa
1aaaad
1aaaag

#18000
0aaaaa

#20000
1aaaaa
0aaaah
1aaaaj
b11 aaaau

#22000
0aaaaa

#24000
1aaaaa
0aaaag
0aaaaj
b0 aaaas
b110 aaaau

#26000
0aaaaa

#28000
1aaaaa
1aaaai
b1001 aaaau

#30000
0aaaaa

#32000
1aaaaa
1aaaag
b1111 aaaat

#34000
0aaaaa

#36000
1aaaaa
0aaaai
1aaaak
b1111 aaaar
b1010 aaaau

#38000
0aaaaa

#40000
1aaaaa
0aaaag
0aaaak
b1 aaaau

