processor/MMU_waveform.vcd
$date
     Jun 14, 2017       22:44:01
$end

$version
 SystemC 2.3.1-Accellera --- Feb 25 2017 20:21:25
$end

$timescale
     1 ps
$end

$scope module SystemC $end
$var wire    1  aaaaa  clock       $end
$var wire    1  aaaab  sreset       $end
$var wire    1  aaaac  controller_read       $end
$var wire    1  aaaad  controller_write       $end
$var wire   12  aaaae  controller_addr_in [11:0]  $end
$var wire   32  aaaaf  controller_data_in [31:0]  $end
$var wire   32  aaaag  controller_data_out [31:0]  $end
$var wire    1  aaaah  controller_out_ready       $end
$var wire    1  aaaai  controller_in_save_all       $end
$var wire    1  aaaaj  ram_read       $end
$var wire    1  aaaak  ram_write       $end
$var wire   10  aaaal  ram_addr_out [9:0]  $end
$var wire   32  aaaam  ram_data_out [31:0]  $end
$var wire   32  aaaan  ram_data_in [31:0]  $end
$var wire    1  aaaao  ram_in_ready       $end
$var wire    1  aaaap  disk_read       $end
$var wire    1  aaaaq  disk_write       $end
$var wire   12  aaaar  disk_addr_out [11:0]  $end
$var wire   32  aaaas  disk_data_out [31:0]  $end
$var wire   32  aaaat  disk_data_in [31:0]  $end
$var wire    1  aaaau  disk_in_ready       $end
$upscope $end
$enddefinitions  $end

$comment
All initial values are dumped below at time 0 sec = 0 timescale units.
$end

$dumpvars
1aaaaa
0aaaab
0aaaac
0aaaad
b0 aaaae
b0 aaaaf
b0 aaaag
0aaaah
0aaaai
0aaaaj
0aaaak
b0 aaaal
b0 aaaam
b0 aaaan
0aaaao
0aaaap
0aaaaq
b0 aaaar
b0 aaaas
b0 aaaat
0aaaau
$end

#2000
0aaaaa

#4000
1aaaaa
1aaaao
1aaaap
b110000000000 aaaar
1aaaau

#6000
0aaaaa

#8000
1aaaaa
1aaaak
b110000000001 aaaar

#10000
0aaaaa

#12000
1aaaaa
b1 aaaal
b110000000010 aaaar

#14000
0aaaaa

#16000
1aaaaa
b10 aaaal
b110000000011 aaaar

#18000
0aaaaa

#19000
1aaaac
b1010 aaaae

#20000
1aaaaa
b11 aaaal
b110000000100 aaaar

#22000
0aaaaa

#23000
0aaaac
b0 aaaae
0aaaao
0aaaau

#24000
1aaaaa
0aaaak
0aaaap

#26000
0aaaaa

#28000
1aaaaa

#30000
0aaaaa

#32000
1aaaaa

#34000
0aaaaa

#35000
1aaaao

#36000
1aaaaa

#38000
0aaaaa

#40000
1aaaaa

#42000
0aaaaa

#44000
1aaaaa

#46000
0aaaaa

#48000
1aaaaa

#50000
0aaaaa

#51000
b110000000100 aaaat
1aaaau

#52000
1aaaaa
1aaaak
b100 aaaal
b110000000100 aaaam
1aaaap
b110000000101 aaaar

#54000
0aaaaa

#55000
0aaaao
0aaaau

#56000
1aaaaa
0aaaak
0aaaap

#58000
0aaaaa

#60000
1aaaaa

#62000
0aaaaa

#64000
1aaaaa

#66000
0aaaaa

#67000
1aaaao

#68000
1aaaaa

#70000
0aaaaa

#72000
1aaaaa

#74000
0aaaaa

#76000
1aaaaa

#78000
0aaaaa

#80000
1aaaaa

#82000
0aaaaa

#83000
b110000000101 aaaat
1aaaau

#84000
1aaaaa
1aaaak
b101 aaaal
b110000000101 aaaam
1aaaap
b110000000110 aaaar

#86000
0aaaaa

#87000
0aaaao
0aaaau

#88000
1aaaaa
0aaaak
0aaaap

#90000
0aaaaa

#92000
1aaaaa

#94000
0aaaaa

#96000
1aaaaa

#98000
0aaaaa

#99000
1aaaao

#100000
1aaaaa

#102000
0aaaaa

#104000
1aaaaa

#106000
0aaaaa

#108000
1aaaaa

#110000
0aaaaa

#112000
1aaaaa

#114000
0aaaaa

#115000
b110000000110 aaaat
1aaaau

#116000
1aaaaa
1aaaak
b110 aaaal
b110000000110 aaaam
1aaaap
b110000000111 aaaar

#118000
0aaaaa

#119000
0aaaao
0aaaau

#120000
1aaaaa
0aaaak
0aaaap

#122000
0aaaaa

#124000
1aaaaa

#126000
0aaaaa

#128000
1aaaaa

#130000
0aaaaa

#131000
1aaaao

#132000
1aaaaa

#134000
0aaaaa

#136000
1aaaaa

#138000
0aaaaa

#140000
1aaaaa

#142000
0aaaaa

#144000
1aaaaa

#146000
0aaaaa

#147000
b110000000111 aaaat
1aaaau

#148000
1aaaaa
1aaaak
b111 aaaal
b110000000111 aaaam
1aaaap
b110000001000 aaaar

#150000
0aaaaa

#151000
0aaaao
0aaaau

#152000
1aaaaa
0aaaak
0aaaap

#154000
0aaaaa

#156000
1aaaaa

#158000
0aaaaa

#160000
1aaaaa

#162000
0aaaaa

#163000
1aaaao

#164000
1aaaaa

#166000
0aaaaa

#168000
1aaaaa

#170000
0aaaaa

#172000
1aaaaa

#174000
0aaaaa

#176000
1aaaaa

#178000
0aaaaa

#179000
b110000001000 aaaat
1aaaau

#180000
1aaaaa
1aaaak
b1000 aaaal
b110000001000 aaaam
1aaaap
b110000001001 aaaar

#182000
0aaaaa

#183000
0aaaao
0aaaau

#184000
1aaaaa
0aaaak
0aaaap

#186000
0aaaaa

#188000
1aaaaa

#190000
0aaaaa

#192000
1aaaaa

#194000
0aaaaa

#195000
1aaaao

#196000
1aaaaa

#198000
0aaaaa

#200000
1aaaaa

#202000
0aaaaa

#204000
1aaaaa

#206000
0aaaaa

#208000
1aaaaa

#210000
0aaaaa

#211000
b110000001001 aaaat
1aaaau

#212000
1aaaaa
1aaaak
b1001 aaaal
b110000001001 aaaam
1aaaap
b110000001010 aaaar

#214000
0aaaaa

#215000
0aaaao
0aaaau

#216000
1aaaaa
0aaaak
0aaaap

#218000
0aaaaa

#220000
1aaaaa

#222000
0aaaaa

#224000
1aaaaa

#226000
0aaaaa

#227000
1aaaao

#228000
1aaaaa

#230000
0aaaaa

#232000
1aaaaa

#234000
0aaaaa

#236000
1aaaaa

#238000
0aaaaa

#240000
1aaaaa

#242000
0aaaaa

#243000
b110000001010 aaaat
1aaaau

#244000
1aaaaa
1aaaak
b1010 aaaal
b110000001010 aaaam
1aaaap
b110000001011 aaaar

#246000
0aaaaa

#247000
0aaaao
0aaaau

#248000
1aaaaa
0aaaak
0aaaap

#250000
0aaaaa

#252000
1aaaaa

#254000
0aaaaa

#256000
1aaaaa

#258000
0aaaaa

#259000
1aaaao

#260000
1aaaaa

#262000
0aaaaa

#264000
1aaaaa

#266000
0aaaaa

#268000
1aaaaa

#270000
0aaaaa

#272000
1aaaaa

#274000
0aaaaa

#275000
b110000001011 aaaat
1aaaau

#276000
1aaaaa
1aaaak
b1011 aaaal
b110000001011 aaaam
1aaaap
b110000001100 aaaar

#278000
0aaaaa

#279000
0aaaao
0aaaau

#280000
1aaaaa
0aaaak
0aaaap

#282000
0aaaaa

#284000
1aaaaa

#286000
0aaaaa

#288000
1aaaaa

#290000
0aaaaa

#291000
1aaaao

#292000
1aaaaa

#294000
0aaaaa

#296000
1aaaaa

#298000
0aaaaa

#300000
1aaaaa

#302000
0aaaaa

#304000
1aaaaa

#306000
0aaaaa

#307000
b110000001100 aaaat
1aaaau

#308000
1aaaaa
1aaaak
b1100 aaaal
b110000001100 aaaam
1aaaap
b110000001101 aaaar

#310000
0aaaaa

#311000
0aaaao
0aaaau

#312000
1aaaaa
0aaaak
0aaaap

#314000
0aaaaa

#316000
1aaaaa

#318000
0aaaaa

#320000
1aaaaa

#322000
0aaaaa

#323000
1aaaao

#324000
1aaaaa

#326000
0aaaaa

#328000
1aaaaa

#330000
0aaaaa

#332000
1aaaaa

#334000
0aaaaa

#336000
1aaaaa

#338000
0aaaaa

#339000
b110000001101 aaaat
1aaaau

#340000
1aaaaa
1aaaak
b1101 aaaal
b110000001101 aaaam
1aaaap
b110000001110 aaaar

#342000
0aaaaa

#343000
0aaaao
0aaaau

#344000
1aaaaa
0aaaak
0aaaap

#346000
0aaaaa

#348000
1aaaaa

#350000
0aaaaa

#352000
1aaaaa

#354000
0aaaaa

#355000
1aaaao

#356000
1aaaaa

#358000
0aaaaa

#360000
1aaaaa

#362000
0aaaaa

#364000
1aaaaa

#366000
0aaaaa

#368000
1aaaaa

#370000
0aaaaa

#371000
b110000001110 aaaat
1aaaau

#372000
1aaaaa
1aaaak
b1110 aaaal
b110000001110 aaaam
1aaaap
b110000001111 aaaar

#374000
0aaaaa

#375000
0aaaao
0aaaau

#376000
1aaaaa
0aaaak
0aaaap

#378000
0aaaaa

#380000
1aaaaa

#382000
0aaaaa

#384000
1aaaaa

#386000
0aaaaa

#387000
1aaaao

#388000
1aaaaa

#390000
0aaaaa

#392000
1aaaaa

#394000
0aaaaa

#396000
1aaaaa

#398000
0aaaaa

#400000
1aaaaa

#402000
0aaaaa

#403000
b110000001111 aaaat
1aaaau

#404000
1aaaaa
1aaaak
b1111 aaaal
b110000001111 aaaam
1aaaap
b110000010000 aaaar

#406000
0aaaaa

#407000
0aaaao
0aaaau

#408000
1aaaaa
0aaaak
0aaaap

#410000
0aaaaa

#412000
1aaaaa

#414000
0aaaaa

#416000
1aaaaa

#418000
0aaaaa

#419000
1aaaao

#420000
1aaaaa

#422000
0aaaaa

#424000
1aaaaa

#426000
0aaaaa

#428000
1aaaaa

#430000
0aaaaa

#432000
1aaaaa

#434000
0aaaaa

#435000
b110000010000 aaaat
1aaaau

#436000
1aaaaa
1aaaak
b10000 aaaal
b110000010000 aaaam
1aaaap
b110000010001 aaaar

#438000
0aaaaa

#439000
0aaaao
0aaaau

#440000
1aaaaa
0aaaak
0aaaap

#442000
0aaaaa

#444000
1aaaaa

#446000
0aaaaa

#448000
1aaaaa

#450000
0aaaaa

#451000
1aaaao

#452000
1aaaaa

#454000
0aaaaa

#456000
1aaaaa

#458000
0aaaaa

#460000
1aaaaa

#462000
0aaaaa

#464000
1aaaaa

#466000
0aaaaa

#467000
b110000010001 aaaat
1aaaau

#468000
1aaaaa
1aaaak
b10001 aaaal
b110000010001 aaaam
1aaaap
b110000010010 aaaar

#470000
0aaaaa

#471000
0aaaao
0aaaau

#472000
1aaaaa
0aaaak
0aaaap

#474000
0aaaaa

#476000
1aaaaa

#478000
0aaaaa

#480000
1aaaaa

#482000
0aaaaa

#483000
1aaaao

#484000
1aaaaa

#486000
0aaaaa

#488000
1aaaaa

#490000
0aaaaa

#492000
1aaaaa

#494000
0aaaaa

#496000
1aaaaa

#498000
0aaaaa

#499000
b110000010010 aaaat
1aaaau

#500000
1aaaaa
1aaaak
b10010 aaaal
b110000010010 aaaam
1aaaap
b110000010011 aaaar

#502000
0aaaaa

#503000
0aaaao
0aaaau

#504000
1aaaaa
0aaaak
0aaaap

#506000
0aaaaa

#508000
1aaaaa

#510000
0aaaaa

#512000
1aaaaa

#514000
0aaaaa

#515000
1aaaao

#516000
1aaaaa

#518000
0aaaaa

#520000
1aaaaa

#522000
0aaaaa

#524000
1aaaaa

#526000
0aaaaa

#528000
1aaaaa

#530000
0aaaaa

#531000
b110000010011 aaaat
1aaaau

#532000
1aaaaa
1aaaak
b10011 aaaal
b110000010011 aaaam
1aaaap
b110000010100 aaaar

#534000
0aaaaa

#535000
0aaaao
0aaaau

#536000
1aaaaa
0aaaak
0aaaap

#538000
0aaaaa

#540000
1aaaaa

#542000
0aaaaa

#544000
1aaaaa

#546000
0aaaaa

#547000
1aaaao

#548000
1aaaaa

#550000
0aaaaa

#552000
1aaaaa

#554000
0aaaaa

#556000
1aaaaa

#558000
0aaaaa

#560000
1aaaaa

#562000
0aaaaa

#563000
b110000010100 aaaat
1aaaau

#564000
1aaaaa
1aaaak
b10100 aaaal
b110000010100 aaaam
1aaaap
b110000010101 aaaar

#566000
0aaaaa

#567000
0aaaao
0aaaau

#568000
1aaaaa
0aaaak
0aaaap

#570000
0aaaaa

#572000
1aaaaa

#574000
0aaaaa

#576000
1aaaaa

#578000
0aaaaa

#579000
1aaaao

#580000
1aaaaa

#582000
0aaaaa

#584000
1aaaaa

#586000
0aaaaa

#588000
1aaaaa

#590000
0aaaaa

#592000
1aaaaa

#594000
0aaaaa

#595000
b110000010101 aaaat
1aaaau

#596000
1aaaaa
1aaaak
b10101 aaaal
b110000010101 aaaam
1aaaap
b110000010110 aaaar

#598000
0aaaaa

#599000
0aaaao
0aaaau

#600000
1aaaaa
0aaaak
0aaaap

#602000
0aaaaa

#604000
1aaaaa

#606000
0aaaaa

#608000
1aaaaa

#610000
0aaaaa

#611000
1aaaao

#612000
1aaaaa

#614000
0aaaaa

#616000
1aaaaa

#618000
0aaaaa

#620000
1aaaaa

#622000
0aaaaa

#624000
1aaaaa

#626000
0aaaaa

#627000
b110000010110 aaaat
1aaaau

#628000
1aaaaa
1aaaak
b10110 aaaal
b110000010110 aaaam
1aaaap
b110000010111 aaaar

#630000
0aaaaa

#631000
0aaaao
0aaaau

#632000
1aaaaa
0aaaak
0aaaap

#634000
0aaaaa

#636000
1aaaaa

#638000
0aaaaa

#640000
1aaaaa

#642000
0aaaaa

#643000
1aaaao

#644000
1aaaaa

#646000
0aaaaa

#648000
1aaaaa

#650000
0aaaaa

#652000
1aaaaa

#654000
0aaaaa

#656000
1aaaaa

#658000
0aaaaa

#659000
b110000010111 aaaat
1aaaau

#660000
1aaaaa
1aaaak
b10111 aaaal
b110000010111 aaaam
1aaaap
b110000011000 aaaar

#662000
0aaaaa

#663000
0aaaao
0aaaau

#664000
1aaaaa
0aaaak
0aaaap

#666000
0aaaaa

#668000
1aaaaa

#670000
0aaaaa

#672000
1aaaaa

#674000
0aaaaa

#675000
1aaaao

#676000
1aaaaa

#678000
0aaaaa

#680000
1aaaaa

#682000
0aaaaa

#684000
1aaaaa

#686000
0aaaaa

#688000
1aaaaa

#690000
0aaaaa

#691000
b110000011000 aaaat
1aaaau

#692000
1aaaaa
1aaaak
b11000 aaaal
b110000011000 aaaam
1aaaap
b110000011001 aaaar

#694000
0aaaaa

#695000
0aaaao
0aaaau

#696000
1aaaaa
0aaaak
0aaaap

#698000
0aaaaa

#700000
1aaaaa

#702000
0aaaaa

#704000
1aaaaa

#706000
0aaaaa

#707000
1aaaao

#708000
1aaaaa

#710000
0aaaaa

#712000
1aaaaa

#714000
0aaaaa

#716000
1aaaaa

#718000
0aaaaa

#720000
1aaaaa

#722000
0aaaaa

#723000
b110000011001 aaaat
1aaaau

#724000
1aaaaa
1aaaak
b11001 aaaal
b110000011001 aaaam
1aaaap
b110000011010 aaaar

#726000
0aaaaa

#727000
0aaaao
0aaaau

#728000
1aaaaa
0aaaak
0aaaap

#730000
0aaaaa

#732000
1aaaaa

#734000
0aaaaa

#736000
1aaaaa

#738000
0aaaaa

#739000
1aaaao

#740000
1aaaaa

#742000
0aaaaa

#744000
1aaaaa

#746000
0aaaaa

#748000
1aaaaa

#750000
0aaaaa

#752000
1aaaaa

#754000
0aaaaa

#755000
b110000011010 aaaat
1aaaau

#756000
1aaaaa
1aaaak
b11010 aaaal
b110000011010 aaaam
1aaaap
b110000011011 aaaar

#758000
0aaaaa

#759000
0aaaao
0aaaau

#760000
1aaaaa
0aaaak
0aaaap

#762000
0aaaaa

#764000
1aaaaa

#766000
0aaaaa

#768000
1aaaaa

#770000
0aaaaa

#771000
1aaaao

#772000
1aaaaa

#774000
0aaaaa

#776000
1aaaaa

#778000
0aaaaa

#780000
1aaaaa

#782000
0aaaaa

#784000
1aaaaa

#786000
0aaaaa

#787000
b110000011011 aaaat
1aaaau

#788000
1aaaaa
1aaaak
b11011 aaaal
b110000011011 aaaam
1aaaap
b110000011100 aaaar

#790000
0aaaaa

#791000
0aaaao
0aaaau

#792000
1aaaaa
0aaaak
0aaaap

#794000
0aaaaa

#796000
1aaaaa

#798000
0aaaaa

#800000
1aaaaa

#802000
0aaaaa

#803000
1aaaao

#804000
1aaaaa

#806000
0aaaaa

#808000
1aaaaa

#810000
0aaaaa

#812000
1aaaaa

#814000
0aaaaa

#816000
1aaaaa

#818000
0aaaaa

#819000
b110000011100 aaaat
1aaaau

#820000
1aaaaa
1aaaak
b11100 aaaal
b110000011100 aaaam
1aaaap
b110000011101 aaaar

#822000
0aaaaa

#823000
0aaaao
0aaaau

#824000
1aaaaa
0aaaak
0aaaap

#826000
0aaaaa

#828000
1aaaaa

#830000
0aaaaa

#832000
1aaaaa

#834000
0aaaaa

#835000
1aaaao

#836000
1aaaaa

#838000
0aaaaa

#840000
1aaaaa

#842000
0aaaaa

#844000
1aaaaa

#846000
0aaaaa

#848000
1aaaaa

#850000
0aaaaa

#851000
b110000011101 aaaat
1aaaau

#852000
1aaaaa
1aaaak
b11101 aaaal
b110000011101 aaaam
1aaaap
b110000011110 aaaar

#854000
0aaaaa

#855000
0aaaao
0aaaau

#856000
1aaaaa
0aaaak
0aaaap

#858000
0aaaaa

#860000
1aaaaa

#862000
0aaaaa

#864000
1aaaaa

#866000
0aaaaa

#867000
1aaaao

#868000
1aaaaa

#870000
0aaaaa

#872000
1aaaaa

#874000
0aaaaa

#876000
1aaaaa

#878000
0aaaaa

#880000
1aaaaa

#882000
0aaaaa

#883000
b110000011110 aaaat
1aaaau

#884000
1aaaaa
1aaaak
b11110 aaaal
b110000011110 aaaam
1aaaap
b110000011111 aaaar

#886000
0aaaaa

#887000
0aaaao
0aaaau

#888000
1aaaaa
0aaaak
0aaaap

#890000
0aaaaa

#892000
1aaaaa

#894000
0aaaaa

#896000
1aaaaa

#898000
0aaaaa

#899000
1aaaao

#900000
1aaaaa

#902000
0aaaaa

#904000
1aaaaa

#906000
0aaaaa

#908000
1aaaaa

#910000
0aaaaa

#912000
1aaaaa

#914000
0aaaaa

#915000
b110000011111 aaaat
1aaaau

#916000
1aaaaa
1aaaak
b11111 aaaal
b110000011111 aaaam
1aaaap
b110000100000 aaaar

#918000
0aaaaa

#919000
0aaaao
0aaaau

#920000
1aaaaa
0aaaak
0aaaap

#922000
0aaaaa

#924000
1aaaaa

#926000
0aaaaa

#928000
1aaaaa

#930000
0aaaaa

#931000
1aaaao

#932000
1aaaaa

#934000
0aaaaa

#936000
1aaaaa

#938000
0aaaaa

#940000
1aaaaa

#942000
0aaaaa

#944000
1aaaaa

#946000
0aaaaa

#947000
b110000100000 aaaat
1aaaau

#948000
1aaaaa
1aaaak
b100000 aaaal
b110000100000 aaaam
1aaaap
b110000100001 aaaar

#950000
0aaaaa

#951000
0aaaao
0aaaau

#952000
1aaaaa
0aaaak
0aaaap

#954000
0aaaaa

#956000
1aaaaa

#958000
0aaaaa

#960000
1aaaaa

#962000
0aaaaa

#963000
1aaaao

#964000
1aaaaa

#966000
0aaaaa

#968000
1aaaaa

#970000
0aaaaa

#972000
1aaaaa

#974000
0aaaaa

#976000
1aaaaa

#978000
0aaaaa

#979000
b110000100001 aaaat
1aaaau

#980000
1aaaaa
1aaaak
b100001 aaaal
b110000100001 aaaam
1aaaap
b110000100010 aaaar

#982000
0aaaaa

#983000
0aaaao
0aaaau

#984000
1aaaaa
0aaaak
0aaaap

#986000
0aaaaa

#988000
1aaaaa

#990000
0aaaaa

#992000
1aaaaa

#994000
0aaaaa

#995000
1aaaao

#996000
1aaaaa

#998000
0aaaaa

#1000000
1aaaaa

#1002000
0aaaaa

#1004000
1aaaaa

#1006000
0aaaaa

#1008000
1aaaaa

#1010000
0aaaaa

#1011000
b110000100010 aaaat
1aaaau

#1012000
1aaaaa
1aaaak
b100010 aaaal
b110000100010 aaaam
1aaaap
b110000100011 aaaar

#1014000
0aaaaa

#1015000
0aaaao
0aaaau

#1016000
1aaaaa
0aaaak
0aaaap

#1018000
0aaaaa

#1020000
1aaaaa

#1022000
0aaaaa

#1024000
1aaaaa

#1026000
0aaaaa

#1027000
1aaaao

#1028000
1aaaaa

#1030000
0aaaaa

#1032000
1aaaaa

#1034000
0aaaaa

#1036000
1aaaaa

#1038000
0aaaaa

#1040000
1aaaaa

#1042000
0aaaaa

#1043000
b110000100011 aaaat
1aaaau

#1044000
1aaaaa
1aaaak
b100011 aaaal
b110000100011 aaaam
1aaaap
b110000100100 aaaar

#1046000
0aaaaa

#1047000
0aaaao
0aaaau

#1048000
1aaaaa
0aaaak
0aaaap

#1050000
0aaaaa

#1052000
1aaaaa

#1054000
0aaaaa

#1056000
1aaaaa

#1058000
0aaaaa

#1059000
1aaaao

#1060000
1aaaaa

#1062000
0aaaaa

#1064000
1aaaaa

#1066000
0aaaaa

#1068000
1aaaaa

#1070000
0aaaaa

#1072000
1aaaaa

#1074000
0aaaaa

#1075000
b110000100100 aaaat
1aaaau

#1076000
1aaaaa
1aaaak
b100100 aaaal
b110000100100 aaaam
1aaaap
b110000100101 aaaar

#1078000
0aaaaa

#1079000
0aaaao
0aaaau

#1080000
1aaaaa
0aaaak
0aaaap

#1082000
0aaaaa

#1084000
1aaaaa

#1086000
0aaaaa

#1088000
1aaaaa

#1090000
0aaaaa

#1091000
1aaaao

#1092000
1aaaaa

#1094000
0aaaaa

#1096000
1aaaaa

#1098000
0aaaaa

#1100000
1aaaaa

#1102000
0aaaaa

#1104000
1aaaaa

#1106000
0aaaaa

#1107000
b110000100101 aaaat
1aaaau

#1108000
1aaaaa
1aaaak
b100101 aaaal
b110000100101 aaaam
1aaaap
b110000100110 aaaar

#1110000
0aaaaa

#1111000
0aaaao
0aaaau

#1112000
1aaaaa
0aaaak
0aaaap

#1114000
0aaaaa

#1116000
1aaaaa

#1118000
0aaaaa

#1120000
1aaaaa

#1122000
0aaaaa

#1123000
1aaaao

#1124000
1aaaaa

#1126000
0aaaaa

#1128000
1aaaaa

#1130000
0aaaaa

#1132000
1aaaaa

#1134000
0aaaaa

#1136000
1aaaaa

#1138000
0aaaaa

#1139000
b110000100110 aaaat
1aaaau

#1140000
1aaaaa
1aaaak
b100110 aaaal
b110000100110 aaaam
1aaaap
b110000100111 aaaar

#1142000
0aaaaa

#1143000
0aaaao
0aaaau

#1144000
1aaaaa
0aaaak
0aaaap

#1146000
0aaaaa

#1148000
1aaaaa

#1150000
0aaaaa

#1152000
1aaaaa

#1154000
0aaaaa

#1155000
1aaaao

#1156000
1aaaaa

#1158000
0aaaaa

#1160000
1aaaaa

#1162000
0aaaaa

#1164000
1aaaaa

#1166000
0aaaaa

#1168000
1aaaaa

#1170000
0aaaaa

#1171000
b110000100111 aaaat
1aaaau

#1172000
1aaaaa
1aaaak
b100111 aaaal
b110000100111 aaaam
1aaaap
b110000101000 aaaar

#1174000
0aaaaa

#1175000
0aaaao
0aaaau

#1176000
1aaaaa
0aaaak
0aaaap

#1178000
0aaaaa

#1180000
1aaaaa

#1182000
0aaaaa

#1184000
1aaaaa

#1186000
0aaaaa

#1187000
1aaaao

#1188000
1aaaaa

#1190000
0aaaaa

#1192000
1aaaaa

#1194000
0aaaaa

#1196000
1aaaaa

#1198000
0aaaaa

#1200000
1aaaaa

#1202000
0aaaaa

#1203000
b110000101000 aaaat
1aaaau

#1204000
1aaaaa
1aaaak
b101000 aaaal
b110000101000 aaaam
1aaaap
b110000101001 aaaar

#1206000
0aaaaa

#1207000
0aaaao
0aaaau

#1208000
1aaaaa
0aaaak
0aaaap

#1210000
0aaaaa

#1212000
1aaaaa

#1214000
0aaaaa

#1216000
1aaaaa

#1218000
0aaaaa

#1219000
1aaaao

#1220000
1aaaaa

#1222000
0aaaaa

#1224000
1aaaaa

#1226000
0aaaaa

#1228000
1aaaaa

#1230000
0aaaaa

#1232000
1aaaaa

#1234000
0aaaaa

#1235000
b110000101001 aaaat
1aaaau

#1236000
1aaaaa
1aaaak
b101001 aaaal
b110000101001 aaaam
1aaaap
b110000101010 aaaar

#1238000
0aaaaa

#1239000
0aaaao
0aaaau

#1240000
1aaaaa
0aaaak
0aaaap

#1242000
0aaaaa

#1244000
1aaaaa

#1246000
0aaaaa

#1248000
1aaaaa

#1250000
0aaaaa

#1251000
1aaaao

#1252000
1aaaaa

#1254000
0aaaaa

#1256000
1aaaaa

#1258000
0aaaaa

#1260000
1aaaaa

#1262000
0aaaaa

#1264000
1aaaaa

#1266000
0aaaaa

#1267000
b110000101010 aaaat
1aaaau

#1268000
1aaaaa
1aaaak
b101010 aaaal
b110000101010 aaaam
1aaaap
b110000101011 aaaar

#1270000
0aaaaa

#1271000
0aaaao
0aaaau

#1272000
1aaaaa
0aaaak
0aaaap

#1274000
0aaaaa

#1276000
1aaaaa

#1278000
0aaaaa

#1280000
1aaaaa

#1282000
0aaaaa

#1283000
1aaaao

#1284000
1aaaaa

#1286000
0aaaaa

#1288000
1aaaaa

#1290000
0aaaaa

#1292000
1aaaaa

#1294000
0aaaaa

#1296000
1aaaaa

#1298000
0aaaaa

#1299000
b110000101011 aaaat
1aaaau

#1300000
1aaaaa
1aaaak
b101011 aaaal
b110000101011 aaaam
1aaaap
b110000101100 aaaar

#1302000
0aaaaa

#1303000
0aaaao
0aaaau

#1304000
1aaaaa
0aaaak
0aaaap

#1306000
0aaaaa

#1308000
1aaaaa

#1310000
0aaaaa

#1312000
1aaaaa

#1314000
0aaaaa

#1315000
1aaaao

#1316000
1aaaaa

#1318000
0aaaaa

#1320000
1aaaaa

#1322000
0aaaaa

#1324000
1aaaaa

#1326000
0aaaaa

#1328000
1aaaaa

#1330000
0aaaaa

#1331000
b110000101100 aaaat
1aaaau

#1332000
1aaaaa
1aaaak
b101100 aaaal
b110000101100 aaaam
1aaaap
b110000101101 aaaar

#1334000
0aaaaa

#1335000
0aaaao
0aaaau

#1336000
1aaaaa
0aaaak
0aaaap

#1338000
0aaaaa

#1340000
1aaaaa

#1342000
0aaaaa

#1344000
1aaaaa

#1346000
0aaaaa

#1347000
1aaaao

#1348000
1aaaaa

#1350000
0aaaaa

#1352000
1aaaaa

#1354000
0aaaaa

#1356000
1aaaaa

#1358000
0aaaaa

#1360000
1aaaaa

#1362000
0aaaaa

#1363000
b110000101101 aaaat
1aaaau

#1364000
1aaaaa
1aaaak
b101101 aaaal
b110000101101 aaaam
1aaaap
b110000101110 aaaar

#1366000
0aaaaa

#1367000
0aaaao
0aaaau

#1368000
1aaaaa
0aaaak
0aaaap

#1370000
0aaaaa

#1372000
1aaaaa

#1374000
0aaaaa

#1376000
1aaaaa

#1378000
0aaaaa

#1379000
1aaaao

#1380000
1aaaaa

#1382000
0aaaaa

#1384000
1aaaaa

#1386000
0aaaaa

#1388000
1aaaaa

#1390000
0aaaaa

#1392000
1aaaaa

#1394000
0aaaaa

#1395000
b110000101110 aaaat
1aaaau

#1396000
1aaaaa
1aaaak
b101110 aaaal
b110000101110 aaaam
1aaaap
b110000101111 aaaar

#1398000
0aaaaa

#1399000
0aaaao
0aaaau

#1400000
1aaaaa
0aaaak
0aaaap

#1402000
0aaaaa

#1404000
1aaaaa

#1406000
0aaaaa

#1408000
1aaaaa

#1410000
0aaaaa

#1411000
1aaaao

#1412000
1aaaaa

#1414000
0aaaaa

#1416000
1aaaaa

#1418000
0aaaaa

#1420000
1aaaaa

#1422000
0aaaaa

#1424000
1aaaaa

#1426000
0aaaaa

#1427000
b110000101111 aaaat
1aaaau

#1428000
1aaaaa
1aaaak
b101111 aaaal
b110000101111 aaaam
1aaaap
b110000110000 aaaar

#1430000
0aaaaa

#1431000
0aaaao
0aaaau

#1432000
1aaaaa
0aaaak
0aaaap

#1434000
0aaaaa

#1436000
1aaaaa

#1438000
0aaaaa

#1440000
1aaaaa

#1442000
0aaaaa

#1443000
1aaaao

#1444000
1aaaaa

#1446000
0aaaaa

#1448000
1aaaaa

#1450000
0aaaaa

#1452000
1aaaaa

#1454000
0aaaaa

#1456000
1aaaaa

#1458000
0aaaaa

#1459000
b110000110000 aaaat
1aaaau

#1460000
1aaaaa
1aaaak
b110000 aaaal
b110000110000 aaaam
1aaaap
b110000110001 aaaar

#1462000
0aaaaa

#1463000
0aaaao
0aaaau

#1464000
1aaaaa
0aaaak
0aaaap

#1466000
0aaaaa

#1468000
1aaaaa

#1470000
0aaaaa

#1472000
1aaaaa

#1474000
0aaaaa

#1475000
1aaaao

#1476000
1aaaaa

#1478000
0aaaaa

#1480000
1aaaaa

#1482000
0aaaaa

#1484000
1aaaaa

#1486000
0aaaaa

#1488000
1aaaaa

#1490000
0aaaaa

#1491000
b110000110001 aaaat
1aaaau

#1492000
1aaaaa
1aaaak
b110001 aaaal
b110000110001 aaaam
1aaaap
b110000110010 aaaar

#1494000
0aaaaa

#1495000
0aaaao
0aaaau

#1496000
1aaaaa
0aaaak
0aaaap

#1498000
0aaaaa

#1500000
1aaaaa

#1502000
0aaaaa

#1504000
1aaaaa

#1506000
0aaaaa

#1507000
1aaaao

#1508000
1aaaaa

#1510000
0aaaaa

#1512000
1aaaaa

#1514000
0aaaaa

#1516000
1aaaaa

#1518000
0aaaaa

#1520000
1aaaaa

#1522000
0aaaaa

#1523000
b110000110010 aaaat
1aaaau

#1524000
1aaaaa
1aaaak
b110010 aaaal
b110000110010 aaaam
1aaaap
b110000110011 aaaar

#1526000
0aaaaa

#1527000
0aaaao
0aaaau

#1528000
1aaaaa
0aaaak
0aaaap

#1530000
0aaaaa

#1532000
1aaaaa

#1534000
0aaaaa

#1536000
1aaaaa

#1538000
0aaaaa

#1539000
1aaaao

#1540000
1aaaaa

#1542000
0aaaaa

#1544000
1aaaaa

#1546000
0aaaaa

#1548000
1aaaaa

#1550000
0aaaaa

#1552000
1aaaaa

#1554000
0aaaaa

#1555000
b110000110011 aaaat
1aaaau

#1556000
1aaaaa
1aaaak
b110011 aaaal
b110000110011 aaaam
1aaaap
b110000110100 aaaar

#1558000
0aaaaa

#1559000
0aaaao
0aaaau

#1560000
1aaaaa
0aaaak
0aaaap

#1562000
0aaaaa

#1564000
1aaaaa

#1566000
0aaaaa

#1568000
1aaaaa

#1570000
0aaaaa

#1571000
1aaaao

#1572000
1aaaaa

#1574000
0aaaaa

#1576000
1aaaaa

#1578000
0aaaaa

#1580000
1aaaaa

#1582000
0aaaaa

#1584000
1aaaaa

#1586000
0aaaaa

#1587000
b110000110100 aaaat
1aaaau

